$ ls -l *.tex
-rw-r--r-- 1 pda users   132 Jan 22 15:31 annee.tex
-rw-r--r-- 1 pda users   358 Apr 18 13:14 ch1.tex
-rw-r--r-- 1 pda users   363 Apr 18 13:18 ch2.tex
-rw-r--r-- 1 pda users   566 Jan 22 15:31 licence.tex
-rw-r--r-- 1 pda users 29996 Apr 18 15:08 sl1.tex
-rw-r--r-- 1 pda users 37758 Apr 18 14:19 sl2.tex
-rw-r--r-- 1 pda users   655 Apr 18 12:43 tout.tex

$ wc sl1.tex
  1088  3758 29996 sl1.tex

$ who am i
pda      pts/6        Apr 12 19:35 (:0)
